EESchema Schematic File Version 4
EELAYER 30 0
EELAYER END
$Descr A4 11693 8268
encoding utf-8
Sheet 1 1
Title ""
Date ""
Rev ""
Comp ""
Comment1 ""
Comment2 ""
Comment3 ""
Comment4 ""
$EndDescr
$Comp
L CPU:Z80CPU U?
U 1 1 61E271F4
P 4200 3200
F 0 "U?" H 4200 4881 50  0000 C CNN
F 1 "Z80CPU" H 4200 4790 50  0000 C CNN
F 2 "" H 4200 3600 50  0001 C CNN
F 3 "www.zilog.com/manage_directlink.php?filepath=docs/z80/um0080" H 4200 3600 50  0001 C CNN
	1    4200 3200
	1    0    0    -1  
$EndComp
$Comp
L 74xx:74LS365 U?
U 1 1 61E29FE0
P 9000 2250
F 0 "U?" H 9000 2150 50  0000 C CNN
F 1 "74LS365" H 9000 2050 50  0000 C CNN
F 2 "" H 9000 2250 50  0001 C CNN
F 3 "http://www.ti.com/lit/gpn/sn74LS365" H 9000 2250 50  0001 C CNN
	1    9000 2250
	1    0    0    -1  
$EndComp
$Comp
L 74xx:74LS32 U?
U 1 1 61E2D22F
P 5900 1400
F 0 "U?" H 5900 1725 50  0000 C CNN
F 1 "74LS32" H 5900 1634 50  0000 C CNN
F 2 "" H 5900 1400 50  0001 C CNN
F 3 "http://www.ti.com/lit/gpn/sn74LS32" H 5900 1400 50  0001 C CNN
	1    5900 1400
	1    0    0    -1  
$EndComp
$Comp
L 74xx:74LS32 U?
U 2 1 61E310B7
P 5900 1950
F 0 "U?" H 5900 2275 50  0000 C CNN
F 1 "74LS32" H 5900 2184 50  0000 C CNN
F 2 "" H 5900 1950 50  0001 C CNN
F 3 "http://www.ti.com/lit/gpn/sn74LS32" H 5900 1950 50  0001 C CNN
	2    5900 1950
	1    0    0    -1  
$EndComp
$Comp
L 74xx:74LS32 U?
U 3 1 61E3A621
P 6250 3250
F 0 "U?" H 6250 3575 50  0000 C CNN
F 1 "74LS32" H 6250 3484 50  0000 C CNN
F 2 "" H 6250 3250 50  0001 C CNN
F 3 "http://www.ti.com/lit/gpn/sn74LS32" H 6250 3250 50  0001 C CNN
	3    6250 3250
	1    0    0    -1  
$EndComp
Wire Wire Line
	4900 3300 5600 3300
Wire Wire Line
	5600 3300 5600 3150
Wire Wire Line
	5600 3150 5950 3150
Wire Wire Line
	4900 3400 5700 3400
Wire Wire Line
	5700 3400 5700 3350
Wire Wire Line
	5700 3350 5950 3350
$Comp
L 74xx:74LS32 U?
U 4 1 61E44E30
P 7050 3350
F 0 "U?" H 7050 3675 50  0000 C CNN
F 1 "74LS32" H 7050 3584 50  0000 C CNN
F 2 "" H 7050 3350 50  0001 C CNN
F 3 "http://www.ti.com/lit/gpn/sn74LS32" H 7050 3350 50  0001 C CNN
	4    7050 3350
	1    0    0    -1  
$EndComp
Wire Wire Line
	6550 3250 6750 3250
Wire Wire Line
	4900 3500 6600 3500
Wire Wire Line
	6600 3500 6600 3450
Wire Wire Line
	6600 3450 6750 3450
Wire Wire Line
	3500 3800 3300 3800
Wire Wire Line
	3300 3800 3300 1300
Wire Wire Line
	3300 1300 5600 1300
Wire Wire Line
	3500 3900 3350 3900
Wire Wire Line
	3350 3900 3350 1500
Wire Wire Line
	3350 1500 5400 1500
Wire Wire Line
	5400 1500 5400 1850
Wire Wire Line
	5400 1850 5600 1850
Connection ~ 5400 1500
Wire Wire Line
	5400 1500 5600 1500
Wire Wire Line
	3500 3700 3400 3700
Wire Wire Line
	3400 3700 3400 1600
Wire Wire Line
	3400 1600 5150 1600
Wire Wire Line
	5150 1600 5150 2050
Wire Wire Line
	5150 2050 5600 2050
$Comp
L power:PWR_FLAG #FLG?
U 1 1 61E5A563
P 10350 800
F 0 "#FLG?" H 10350 875 50  0001 C CNN
F 1 "PWR_FLAG" H 10350 973 50  0001 C CNN
F 2 "" H 10350 800 50  0001 C CNN
F 3 "~" H 10350 800 50  0001 C CNN
	1    10350 800 
	1    0    0    -1  
$EndComp
$Comp
L power:VCC #PWR?
U 1 1 61E5B19C
P 10350 800
F 0 "#PWR?" H 10350 650 50  0001 C CNN
F 1 "VCC" H 10365 973 50  0000 C CNN
F 2 "" H 10350 800 50  0001 C CNN
F 3 "" H 10350 800 50  0001 C CNN
	1    10350 800 
	-1   0    0    1   
$EndComp
$Comp
L power:PWR_FLAG #FLG?
U 1 1 61E5D2B8
P 10850 800
F 0 "#FLG?" H 10850 875 50  0001 C CNN
F 1 "PWR_FLAG" H 10850 973 50  0001 C CNN
F 2 "" H 10850 800 50  0001 C CNN
F 3 "~" H 10850 800 50  0001 C CNN
	1    10850 800 
	1    0    0    -1  
$EndComp
$Comp
L power:GND #PWR?
U 1 1 61E5F112
P 10850 800
F 0 "#PWR?" H 10850 550 50  0001 C CNN
F 1 "GND" H 10855 627 50  0000 C CNN
F 2 "" H 10850 800 50  0001 C CNN
F 3 "" H 10850 800 50  0001 C CNN
	1    10850 800 
	1    0    0    -1  
$EndComp
$Comp
L power:GND #PWR?
U 1 1 61E6708C
P 9000 3000
F 0 "#PWR?" H 9000 2750 50  0001 C CNN
F 1 "GND" H 9005 2827 50  0000 C CNN
F 2 "" H 9000 3000 50  0001 C CNN
F 3 "" H 9000 3000 50  0001 C CNN
	1    9000 3000
	1    0    0    -1  
$EndComp
$Comp
L power:VCC #PWR?
U 1 1 61E68CC0
P 9000 1550
F 0 "#PWR?" H 9000 1400 50  0001 C CNN
F 1 "VCC" H 9015 1723 50  0000 C CNN
F 2 "" H 9000 1550 50  0001 C CNN
F 3 "" H 9000 1550 50  0001 C CNN
	1    9000 1550
	1    0    0    -1  
$EndComp
Wire Wire Line
	7350 3350 7350 2350
Wire Wire Line
	7350 2350 8500 2350
Wire Wire Line
	6200 1950 7350 1950
Wire Wire Line
	7350 1950 7350 2250
Wire Wire Line
	7350 2250 8500 2250
Wire Wire Line
	6200 1400 7400 1400
Wire Wire Line
	7400 1400 7400 2150
Wire Wire Line
	7400 2150 8500 2150
Wire Wire Line
	8500 2550 8350 2550
Wire Wire Line
	9000 2950 9000 3000
Wire Wire Line
	9000 2950 8350 2950
Connection ~ 9000 2950
Wire Wire Line
	8350 2550 8350 2650
Wire Wire Line
	8500 2650 8350 2650
Connection ~ 8350 2650
Wire Wire Line
	8350 2650 8350 2950
Text GLabel 10000 2450 2    50   Input ~ 0
~LOWER8K
Text GLabel 10100 2250 2    50   Input ~ 0
~MEMRD
Wire Wire Line
	10000 2450 9600 2450
Wire Wire Line
	9600 2450 9600 2350
Wire Wire Line
	9600 2350 9500 2350
Wire Wire Line
	9500 2250 10100 2250
Text GLabel 10100 2050 2    50   Input ~ 0
~MEMWR
Wire Wire Line
	9500 2150 10000 2150
Wire Wire Line
	10000 2150 10000 2050
Wire Wire Line
	10000 2050 10100 2050
NoConn ~ 9500 1850
NoConn ~ 9500 1950
NoConn ~ 9500 2050
NoConn ~ 8500 1850
NoConn ~ 8500 1950
NoConn ~ 8500 2050
$EndSCHEMATC
